\beamer@endinputifotherversion {3.10pt}
\beamer@sectionintoc {2}{原始問題}{3}{0}{1}
\beamer@subsectionintoc {2}{1}{原始Data}{3}{0}{1}
\beamer@sectionintoc {3}{Kernel 轉換}{4}{0}{2}
\beamer@subsectionintoc {3}{1}{Kernel 轉換}{4}{0}{2}
\beamer@subsectionintoc {3}{2}{PCA}{6}{0}{2}
\beamer@subsectionintoc {3}{3}{CART on PCs}{11}{0}{2}
\beamer@subsectionintoc {3}{4}{SPLS Find Features}{12}{0}{2}
\beamer@sectionintoc {4}{Weighted Training 補充}{13}{0}{3}
\beamer@subsectionintoc {4}{1}{效用函數}{13}{0}{3}
